<svg aria-hidden="true" version="1.1" xmlns="http://www.w3.org/2000/svg" xmlns:xlink="http://www.w3.org/1999/xlink">
<defs>
<symbol id="folderOpen" viewBox="0 0 32 32">
  <path d="M26 30l6-16h-26l-6 16zM4 12l-4 18v-26h9l4 4h13v4z"/>
</symbol>
<symbol id="folderOpen--bassCleff" viewBox="0 0 32 32">
  <path d="M0 4 L0 30 L4 12 L26 12 L26 8 L13 8 L9 4 L0 4z M0 30 L26 30 L32 14 L6 14 L0 30z M17.642578 16.25 C20.262049 16.25 21.818981 18.340362 20.935547 20.767578 C19.107449 25.790234 12.033128 26.287538 8.3164062 27.849609 L8.3828125 27.337891 C9.9386091 26.496774 16.001638 26.023759 17.960938 20.640625 C18.87936 18.117282 18.62211 16.976562 16.84375 16.976562 C14.320407 16.976563 13.451515 18.244993 13.320312 18.605469 C13.241591 18.821757 13.411601 19.054688 13.748047 19.054688 C14.084492 19.054688 14.275306 18.886719 14.515625 18.886719 C15.380773 18.886719 15.763256 19.621012 15.474609 20.414062 C15.124733 21.375338 13.939197 22.023438 13.001953 22.023438 C11.7523 22.023438 11.230542 21.008996 11.650391 19.855469 C12.43761 17.692603 15.239394 16.25 17.642578 16.25z M23.833984 17.414062 C24.41075 17.414063 24.761726 18.003908 24.560547 18.556641 C24.359369 19.109374 23.483187 19.701172 22.978516 19.701172 C22.305628 19.701172 22.030563 19.230721 22.292969 18.509766 C22.511641 17.908969 23.329317 17.414062 23.833984 17.414062z M22.105469 22.162109 C22.706266 22.162109 23.029557 22.763332 22.880859 23.171875 C22.644694 23.820734 21.809358 24.361328 21.304688 24.361328 C20.60776 24.361328 20.294235 24.002205 20.556641 23.28125 C20.740326 22.77658 21.504673 22.162109 22.105469 22.162109z"/>
</symbol>
<symbol id="tv" viewBox="0 0 32 32">
  <path d="M30.662 9.003c-2.775-0.399-5.731-0.688-8.815-0.851l5.153-5.153-2-2-7.017 7.017c-0.656-0.011-1.317-0.017-1.983-0.017v0l-8-8-2 2 6.069 6.069c-3.779 0.133-7.386 0.454-10.731 0.935-0.86 3.366-1.338 7.086-1.338 10.997s0.477 7.63 1.338 10.997c4.489 0.645 9.448 1.003 14.662 1.003s10.173-0.358 14.662-1.003c0.86-3.366 1.338-7.086 1.338-10.997s-0.477-7.63-1.338-10.997zM26.997 27.331c-3.367 0.43-7.086 0.669-10.997 0.669s-7.63-0.239-10.997-0.669c-0.645-2.244-1.003-4.724-1.003-7.331s0.358-5.087 1.003-7.331c3.366-0.43 7.086-0.669 10.997-0.669s7.63 0.239 10.996 0.669c0.645 2.244 1.004 4.724 1.004 7.331s-0.358 5.087-1.003 7.331z"/>
</symbol>
<symbol id="play" viewBox="0 0 32 32">
  <path d="M6 4l20 12-20 12z"/>
</symbol>
<symbol id="pause" viewBox="0 0 32 32">
  <path d="M4 4h10v24h-10zM18 4h10v24h-10z"/>
</symbol>
<symbol id="volumeHigh" viewBox="0 0 34 32">
  <path d="M27.814 28.814c-0.384 0-0.768-0.146-1.061-0.439-0.586-0.586-0.586-1.535 0-2.121 2.739-2.739 4.247-6.38 4.247-10.253s-1.508-7.514-4.247-10.253c-0.586-0.586-0.586-1.536 0-2.121s1.536-0.586 2.121 0c3.305 3.305 5.126 7.7 5.126 12.374s-1.82 9.069-5.126 12.374c-0.293 0.293-0.677 0.439-1.061 0.439zM22.485 25.985c-0.384 0-0.768-0.146-1.061-0.439-0.586-0.586-0.586-1.535 0-2.121 4.094-4.094 4.094-10.755 0-14.849-0.586-0.586-0.586-1.536 0-2.121s1.536-0.586 2.121 0c2.55 2.55 3.954 5.94 3.954 9.546s-1.404 6.996-3.954 9.546c-0.293 0.293-0.677 0.439-1.061 0.439v0zM17.157 23.157c-0.384 0-0.768-0.146-1.061-0.439-0.586-0.586-0.586-1.535 0-2.121 2.534-2.534 2.534-6.658 0-9.192-0.586-0.586-0.586-1.536 0-2.121s1.535-0.586 2.121 0c3.704 3.704 3.704 9.731 0 13.435-0.293 0.293-0.677 0.439-1.061 0.439z"/>
<path d="M13 30c-0.26 0-0.516-0.102-0.707-0.293l-7.707-7.707h-3.586c-0.552 0-1-0.448-1-1v-10c0-0.552 0.448-1 1-1h3.586l7.707-7.707c0.286-0.286 0.716-0.372 1.090-0.217s0.617 0.519 0.617 0.924v26c0 0.404-0.244 0.769-0.617 0.924-0.124 0.051-0.254 0.076-0.383 0.076z"/>
</symbol>
<symbol id="volumeMedium" viewBox="0 0 32 32">
  <path d="M22.485 25.985c-0.384 0-0.768-0.146-1.061-0.439-0.586-0.586-0.586-1.535 0-2.121 4.094-4.094 4.094-10.755 0-14.849-0.586-0.586-0.586-1.536 0-2.121s1.536-0.586 2.121 0c2.55 2.55 3.954 5.94 3.954 9.546s-1.404 6.996-3.954 9.546c-0.293 0.293-0.677 0.439-1.061 0.439v0zM17.157 23.157c-0.384 0-0.768-0.146-1.061-0.439-0.586-0.586-0.586-1.535 0-2.121 2.534-2.534 2.534-6.658 0-9.192-0.586-0.586-0.586-1.536 0-2.121s1.535-0.586 2.121 0c3.704 3.704 3.704 9.731 0 13.435-0.293 0.293-0.677 0.439-1.061 0.439z"/>
<path d="M13 30c-0.26 0-0.516-0.102-0.707-0.293l-7.707-7.707h-3.586c-0.552 0-1-0.448-1-1v-10c0-0.552 0.448-1 1-1h3.586l7.707-7.707c0.286-0.286 0.716-0.372 1.090-0.217s0.617 0.519 0.617 0.924v26c0 0.404-0.244 0.769-0.617 0.924-0.124 0.051-0.254 0.076-0.383 0.076z"/>
</symbol>
<symbol id="volumeLow" viewBox="0 0 32 32">
  <path d="M17.157 23.157c-0.384 0-0.768-0.146-1.061-0.439-0.586-0.586-0.586-1.535 0-2.121 2.534-2.534 2.534-6.658 0-9.192-0.586-0.586-0.586-1.536 0-2.121s1.535-0.586 2.121 0c3.704 3.704 3.704 9.731 0 13.435-0.293 0.293-0.677 0.439-1.061 0.439z"/>
<path d="M13 30c-0.26 0-0.516-0.102-0.707-0.293l-7.707-7.707h-3.586c-0.552 0-1-0.448-1-1v-10c0-0.552 0.448-1 1-1h3.586l7.707-7.707c0.286-0.286 0.716-0.372 1.090-0.217s0.617 0.519 0.617 0.924v26c0 0.404-0.244 0.769-0.617 0.924-0.124 0.051-0.254 0.076-0.383 0.076z"/>
</symbol>
<symbol id="volumeMute" viewBox="0 0 32 32">
  <path d="M30 19.348v2.652h-2.652l-3.348-3.348-3.348 3.348h-2.652v-2.652l3.348-3.348-3.348-3.348v-2.652h2.652l3.348 3.348 3.348-3.348h2.652v2.652l-3.348 3.348 3.348 3.348z"/>
  <path d="M13 30c-0.26 0-0.516-0.102-0.707-0.293l-7.707-7.707h-3.586c-0.552 0-1-0.448-1-1v-10c0-0.552 0.448-1 1-1h3.586l7.707-7.707c0.286-0.286 0.716-0.372 1.090-0.217s0.617 0.519 0.617 0.924v26c0 0.404-0.244 0.769-0.617 0.924-0.124 0.051-0.254 0.076-0.383 0.076z"/>
</symbol>
<symbol id="gitlab" viewBox="0 0 24 24">
  <title>GitLab</title>
  <path d="M23.955 13.587l-1.342-4.135-2.664-8.189c-.135-.423-.73-.423-.867 0L16.418 9.45H7.582L4.919 1.263C4.783.84 4.185.84 4.05 1.26L1.386 9.449.044 13.587c-.121.375.014.789.331 1.023L12 23.054l11.625-8.443c.318-.235.453-.647.33-1.024"/>
</symbol>
</defs>
</svg>
